…
    # Save the plot (optional)
    # ggsave(filename = paste0("figures/price_differences_", cat, ".png"), plot = p_diff, width = 10, height = 6)
  }
}
Let me know if this resolves the error or if you need further assistance!






You said:
> print(price_differences_all)
# A tibble: 250 × 5
   vendor   mean_price price_difference baseline_vendor category
   <fct>         <dbl>            <dbl> <chr>           <fct>   
 1 Galleria      17.0             0     Galleria        staple  
 2 Loblaws        6.53          -10.5   Galleria        staple  
 3 Metro          5.56          -11.4   Galleria        staple  
 4 NoFrills       5.40          -11.6   Galleria        staple  
 5 TandT          8.69           -8.31  Galleria        staple  
 6 Galleria      17.0            10.5   Loblaws         staple  
 7 Loblaws        6.53            0     Loblaws         staple  
 8 Metro          5.56           -0.968 Loblaws         staple  
 9 NoFrills       5.40           -1.12  Loblaws         staple  
10 TandT          8.69            2.17  Loblaws         staple  
# ℹ 240 more rows
# ℹ Use print(n = ...) to see more rows
…
5. Write to a CSV File (if the data is very large):
If the data frame is too big to comfortably view in the console, consider writing it to a CSV file and opening it in a spreadsheet program like Excel.

write_csv(price_differences_all, "price_differences_all.csv")
You can then open price_differences_all.csv in Excel or another program to view all the data.

Putting It All Together:
Given your specific situation, here's the code you should run:

# Print all rows of the tibble
print(price_differences_all, n = Inf)
Example Output:
Assuming price_differences_all has 250 rows, this command will print all 250 rows in the console.

# A tibble: 250 × 5
   vendor   mean_price price_difference baseline_vendor category
   <fct>         <dbl>            <dbl> <fct>           <fct>   
 1 Galleria      17.0             0     Galleria        staple  
 2 Loblaws        6.53          -10.5   Galleria        staple  
 3 Metro          5.56          -11.4   Galleria        staple  
 4 NoFrills       5.40          -11.6   Galleria        staple  
 5 TandT          8.69           -8.31  Galleria        staple  
 6 Galleria      17.0            10.5   Loblaws         staple  
 7 Loblaws        6.53            0     Loblaws         staple  
 8 Metro          5.56           -0.968 Loblaws         staple  
 9 NoFrills       5.40           -1.12  Loblaws         staple  
10 TandT          8.69            2.17  Loblaws         staple  
# ... with 240 more rows
…
